FAM Asset Queue:
PD:743 -> SB:735

CLGX2_SL_EventHandler:
PD:1838 -> SB:1781

CLGX2_SS_PopulateFamQueue:
PD:1839 -> SB:1774

CLGX2_SS_ProcessFamQueue:
PD:1840 -> SB:1778

CLGX2_FAQ_UI.html:
PD:19814242 -> SB:16843938

json (folder):
PD:12955861 -> SB:11211377

famqueue_ids.json
PD:19834967 -> SB:16938996

Base CIP Search:
PD:customsearch_clgx_cip_cfo_faui -> SB:customsearch6995